1.Definir el algoritmo en función de si mismo.
2.Encontrar la condición de parada.

  S(0) = 0
  s(1) = 1 + 0 = 1
  s(2) = 2 + 1 = 3
  S(3) = 3 + 2 + 1 = 6
  S(4) = 4 + 3 + 2 + 1 = 
  S(n) = n + S(n - 1) 
